{
  "name": "article",
  "datasource": "mongodb",
  "properties": {
    "description": {
      "type": "string",
      "required": true
    },
    "model": {
      "type": "string",
      "required": true
    },
    "price": {
      "type": "number",
      "required": true,
      "default": 0
    },
    "existence": {
      "type": "number",
      "required": true,
      "default": 0
    }
  },
  "relations": {}
}
